Assessment-1.knit
…
10
Mcdonalds
Double Quarter Pounder with Cheese
770
400

Display the observations that has more than 1000 calories

fastfood%>%
filter(calories>1000)

## # A tibble: 28 x 18
##     ...1 restaurant item            calories cal_fat total_fat sat_fat trans_fat
##    <dbl> <chr>      <chr>              <dbl>   <dbl>     <dbl>   <dbl>     <dbl>
##  1     3 Mcdonalds  Double Bacon S~     1130     600        67      27       3  
##  2    38 Mcdonalds  10 piece Butte~     1210     630        70      12       1  
##  3    39 Mcdonalds  12 piece Butte~     1510     790        88      15       1  
##  4    40 Mcdonalds  20 piece Butte~     2430    1270       141      24       2  
##  5    45 Mcdonalds  40 piece Chick~     1770     960       107      18       0.5
##  6    48 Mcdonalds  10 piece Sweet~     1600     600        66      10       0  
##  7    99 Sonic      Super Sonic Ba~     1280     830        92      36       4  
##  8   100 Sonic      Super Sonic Do~     1120     680        76      32       4  
##  9   101 Sonic      Super Sonic Do~     1130     680        76      32       4  
## 10   102 Sonic      Super Sonic Do~     1220     780        87      34       4  
## # ... with 18 more rows, and 10 more variables: cholesterol <dbl>,
## #   sodium <dbl>, total_carb <dbl>, fiber <dbl>, sugar <dbl>, protein <dbl>,
## #   vit_a <dbl>, vit_c <dbl>, calcium <dbl>, salad <chr>
Arrange observations with more than 40 in total_fat and more than 80 in total_carb in the descending order and save them to a new variable (dataset) called dont_eat_this

In arranging the variables, the only one variable out of two will arrange in the descending order. the function will not work for both of the variables.

`dont_eat_this`<- fastfood %>%
 arrange(desc(total_fat,total_carb))%>%
  filter(total_fat>40 ,total_carb>80)

Using the initial dataset variable, use case_when() to create a new variable heavy_food which is equal to heavy when total calories are greater than 500, low when total calories are less than 250 and average for all other cases. Count the number of observations in each created category.

fastfood%>%
  select(restaurant,item,calories)%>%
  mutate(heavy_food=case_when(calories>"500"~ "heavy",calories<"250"~"low",T~"average"))

## # A tibble: 515 x 4
##    restaurant item                                      calories heavy_food
##    <chr>      <chr>                                        <dbl> <chr>     
##  1 Mcdonalds  Artisan Grilled Chicken Sandwich               380 average   
##  2 Mcdonalds  Single Bacon Smokehouse Burger                 840 heavy     
##  3 Mcdonalds  Double Bacon Smokehouse Burger                1130 low       
##  4 Mcdonalds  Grilled Bacon Smokehouse Chicken Sandwich      750 heavy     
##  5 Mcdonalds  Crispy Bacon Smokehouse Chicken Sandwich       920 heavy     
##  6 Mcdonalds  Big Mac                                        540 heavy     
##  7 Mcdonalds  Cheeseburger                                   300 average   
##  8 Mcdonalds  Classic Chicken Sandwich                       510 heavy     
##  9 Mcdonalds  Double Cheeseburger                            430 average   
## 10 Mcdonalds  Double Quarter Pounder with Cheese            770 heavy     
## # ... with 505 more rows
…
Add variables to the dataset, which:

calculates the average calories per type of restaurant and call it average_calories

calculates the maximum total_fat per type of restaurant and call it max_fat - calculates the minimum cholesterol per type of restaurant and call it min_cholesterol

 fastfood%>%
   select(restaurant,calories,cholesterol,total_fat)%>%
   group_by(restaurant)%>%
   mutate(average_calories= mean(calories),max_fat=max(total_fat),min_cholesterol=min(cholesterol))%>%
   ungroup()

## # A tibble: 515 x 7
##    restaurant calories cholesterol total_fat average_calories max_fat
##    <chr>         <dbl>       <dbl>     <dbl>            <dbl>   <dbl>
##  1 Mcdonalds       380          95         7             640.     141
##  2 Mcdonalds       840         130        45             640.     141
##  3 Mcdonalds      1130         220        67             640.     141
##  4 Mcdonalds       750         155        31             640.     141
##  5 Mcdonalds       920         120        45             640.     141
##  6 Mcdonalds       540          80        28             640.     141
##  7 Mcdonalds       300          40        12             640.     141
##  8 Mcdonalds       510          65        24             640.     141
##  9 Mcdonalds       430          85        21             640.     141
## 10 Mcdonalds       770         175        45             640.     141
## # ... with 505 more rows, and 1 more variable: min_cholesterol <dbl>
…
Add a variable to the dataset, which calculates the sum of cholesterol and sodium and call it cholesterol_sodium.

fastfood%>%
   select(restaurant,item,sodium,cholesterol)%>%
   mutate(cholesterol_sodium=sum(sodium,cholesterol))

## # A tibble: 515 x 5
##    restaurant item                          sodium cholesterol cholesterol_sodi~
##    <chr>      <chr>                          <dbl>       <dbl>             <dbl>
##  1 Mcdonalds  Artisan Grilled Chicken Sand~   1110          95            679385
##  2 Mcdonalds  Single Bacon Smokehouse Burg~   1580         130            679385
##  3 Mcdonalds  Double Bacon Smokehouse Burg~   1920         220            679385
##  4 Mcdonalds  Grilled Bacon Smokehouse Chi~   1940         155            679385
##  5 Mcdonalds  Crispy Bacon Smokehouse Chic~   1980         120            679385
##  6 Mcdonalds  Big Mac                          950          80            679385
##  7 Mcdonalds  Cheeseburger                     680          40            679385
##  8 Mcdonalds  Classic Chicken Sandwich        1040          65            679385
##  9 Mcdonalds  Double Cheeseburger             1040          85            679385
## 10 Mcdonalds  Double Quarter Pounder with~   1290         175            679385
## # ... with 505 more rows

## to remove variable salad 
fastfood%>%
select(-salad)

## # A tibble: 515 x 17
##     ...1 restaurant item            calories cal_fat total_fat sat_fat trans_fat
##    <dbl> <chr>      <chr>              <dbl>   <dbl>     <dbl>   <dbl>     <dbl>
##  1     1 Mcdonalds  Artisan Grille~      380      60         7       2       0  
##  2     2 Mcdonalds  Single Bacon S~      840     410        45      17       1.5
##  3     3 Mcdonalds  Double Bacon S~     1130     600        67      27       3  
##  4     4 Mcdonalds  Grilled Bacon ~      750     280        31      10       0.5
##  5     5 Mcdonalds  Crispy Bacon S~      920     410        45      12       0.5
##  6     6 Mcdonalds  Big Mac              540     250        28      10       1  
##  7     7 Mcdonalds  Cheeseburger         300     100        12       5       0.5
##  8     8 Mcdonalds  Classic Chicke~      510     210        24       4       0  
##  9     9 Mcdonalds  Double Cheeseb~      430     190        21      11       1  
## 10    10 Mcdonalds  Double Quarter~      770     400        45      21       2.5
## # ... with 505 more rows, and 9 more variables: cholesterol <dbl>,
## #   sodium <dbl>, total_carb <dbl>, fiber <dbl>, sugar <dbl>, protein <dbl>,
## #   vit_a <dbl>, vit_c <dbl>, calcium <dbl>
…
